Una guía amigable para el uso de Lavaan: Potencia de R para el Análisis Factorial Confirmatorio (SEM)
…
# ¡Quiero orden!
tibble::as_tibble(lavaan::HolzingerSwineford1939) 

## # A tibble: 301 x 15
##       id   sex ageyr agemo scho… grade    x1    x2    x3    x4    x5    x6
##    <int> <int> <int> <int> <fct> <int> <dbl> <dbl> <dbl> <dbl> <dbl> <dbl>
##  1     1     1    13     1 Past…     7  3.33  7.75 0.375  2.33  5.75 1.29 
##  2     2     2    13     7 Past…     7  5.33  5.25 2.12   1.67  3    1.29 
##  3     3     2    13     1 Past…     7  4.5   5.25 1.88   1     1.75 0.429
##  4     4     1    13     2 Past…     7  5.33  7.75 3      2.67  4.5  2.43 
##  5     5     2    12     2 Past…     7  4.83  4.75 0.875  2.67  4    2.57 
##  6     6     2    14     1 Past…     7  5.33  5    2.25   1     3    0.857
##  7     7     1    12     1 Past…     7  2.83  6    1      3.33  6    2.86 
##  8     8     2    12     2 Past…     7  5.67  6.25 1.88   3.67  4.25 1.29 
##  9     9     2    13     0 Past…     7  4.5   5.75 1.5    2.67  5.75 2.71 
## 10    11     2    12     5 Past…     7  3.5   5.25 0.75   2.67  5    2.57 
## # ... with 291 more rows, and 3 more variables: x7 <dbl>, x8 <dbl>,
## #   x9 <dbl>
…
